# setting LC_ALL to "C"
# --> Including file '/pool/marcocle/cmake-modernization/Gaudi/GaudiExamples/options/CounterAlg.py'
# <-- End of file '/pool/marcocle/cmake-modernization/Gaudi/GaudiExamples/options/CounterAlg.py'
# --> Including file '/tmp/marcocle/tmpngt9187y.py'
# <-- End of file '/tmp/marcocle/tmpngt9187y.py'
ApplicationMgr    SUCCESS
====================================================================================================================================
                                                   Welcome to ApplicationMgr (GaudiCoreSvc v36r1)
                                          running on lblhcbpr4.cern.ch on Tue Oct  5 17:33:30 2021
====================================================================================================================================
ApplicationMgr       INFO Application Manager Configured successfully
EventLoopMgr      WARNING Unable to locate service "EventSelector"
EventLoopMgr      WARNING No events will be processed from external input.
ApplicationMgr       INFO Application Manager Initialized successfully
ApplicationMgr       INFO Application Manager Started successfully
CounterAlg           INFO Super nice message, max 5 times
CounterAlg           INFO Super nice message, max 5 times
CounterAlg           INFO Super nice message, max 5 times
CounterAlg           INFO Super nice message, max 5 times
CounterAlg           INFO Suppressing message: 'Super nice message, max 5 times'
Gaudi::Monitori...   INFO Writing counters to JSON file counters.json
CounterAlg           INFO Number of counters : 18
 |    Counter                                      |     #     |    sum     | mean/eff^* | rms/err^*  |     min     |     max     |
 | "Average"                                       |       500 |        750 |     1.5000 |
 | "AverageInteger"                                |       500 |        500 |     1.0000 |
 | "AverageNonAtomic"                              |       500 |        750 |     1.5000 |
 | "Basic"                                         |       500 |
 |*"Binomial"                                      |       500 |        500 |( 100.0000 +-  0.000000)% |
 | "DQCounter10"                                   |       490 |
 | "DQCounter11"                                   |       489 |
 | "DQCounter12"                                   |       488 |
 | "DQCounter13"                                   |       487 |
 | "DQCounter14"                                   |       486 |
 | "DQCounter15"                                   |       485 |
 | "DQCounter16"                                   |       484 |
 | "DQCounter17"                                   |       483 |
 | "DQCounter18"                                   |       482 |
 | "DQCounter19"                                   |       481 |
 | "Sigma"                                         |       500 |       1250 |     2.5000 |      0.0000 |
 | "Stat"                                          |       500 |       1750 |     3.5000 |      0.0000 |      3.5000 |      3.5000 |
 | "Super nice message, max 5 times"               |       500 |
ApplicationMgr       INFO Application Manager Stopped successfully
EventLoopMgr         INFO Histograms converted successfully according to request.
ApplicationMgr       INFO Application Manager Finalized successfully
ApplicationMgr       INFO Application Manager Terminated successfully
